Create a data set with one gain per person — create_byperson • suddengains
…
                sg_crit1_cutoff = 7,
                id_var_name = "id",
                tx_start_var_name = "bdi_s1",
                tx_end_var_name = "bdi_s12",
                sg_var_list = c("bdi_s1", "bdi_s2", "bdi_s3",
                                "bdi_s4", "bdi_s5", "bdi_s6",
                                "bdi_s7", "bdi_s8", "bdi_s9",
                                "bdi_s10", "bdi_s11", "bdi_s12"),
                sg_measure_name = "bdi",
                multiple_sg_select = "largest")
#> First, second, and third sudden gains criteria were applied.
#> The critical value for the third criterion was adjusted for missingness.
#> Note: The vector specified in 'extract_var_list' must have the same number of repeated time points as the measure used to identify sudden gains.
#> The largest gain/loss was selected in case of multiple gains/losses.
#> # A tibble: 43 x 46
#>       id id_sg sg_crit123 sg_session_n sg_freq_byperson sg_bdi_2n sg_bdi_1n
#>    <dbl> <chr>      <dbl>        <dbl>            <dbl>     <dbl>     <dbl>
#>  1     1 1_sg…          1            7                2        24        21
#>  2     2 NA             0           NA                0        NA        NA
#>  3     3 3_sg…          1            8                1        37        NA
#>  4     4 4_sg…          1            3                1        31        30
#>  5     5 5_sg…          1            8                2        23        21
#>  6     6 NA             0           NA                0        NA        NA
#>  7     7 NA             0           NA                0        NA        NA
#>  8     8 NA             0           NA                0        NA        NA
#>  9     9 9_sg…          1            3                1        35        34
#> 10    10 10_s…          1            2                2        NA        35
#> # … with 33 more rows, and 39 more variables: sg_bdi_n <dbl>, sg_bdi_n1 <dbl>,
#> #   sg_bdi_n2 <dbl>, sg_bdi_n3 <dbl>, sg_magnitude <dbl>,
#> #   sg_bdi_tx_change <dbl>, sg_change_proportion <dbl>,
#> #   sg_reversal_value <dbl>, sg_reversal <dbl>, bdi_s0 <dbl>, bdi_s1 <dbl>,
#> #   bdi_s2 <dbl>, bdi_s3 <dbl>, bdi_s4 <dbl>, bdi_s5 <dbl>, bdi_s6 <dbl>,
#> #   bdi_s7 <dbl>, bdi_s8 <dbl>, bdi_s9 <dbl>, bdi_s10 <dbl>, bdi_s11 <dbl>,
#> #   bdi_s12 <dbl>, bdi_fu1 <dbl>, bdi_fu2 <dbl>, rq_s0 <dbl>, rq_s1 <dbl>,
#> #   rq_s2 <dbl>, rq_s3 <dbl>, rq_s4 <dbl>, rq_s5 <dbl>, rq_s6 <dbl>,
#> #   rq_s7 <dbl>, rq_s8 <dbl>, rq_s9 <dbl>, rq_s10 <dbl>, rq_s11 <dbl>,
…
