Create a data set with one row for each sudden gain/loss — create_bysg • suddengains
…
# Create bypsg data set
create_bysg(data = sgdata,
            sg_crit1_cutoff = 7,
            id_var_name = "id",
            tx_start_var_name = "bdi_s1",
            tx_end_var_name = "bdi_s12",
            sg_var_list = c("bdi_s1", "bdi_s2", "bdi_s3",
                            "bdi_s4", "bdi_s5", "bdi_s6",
                            "bdi_s7", "bdi_s8", "bdi_s9",
                            "bdi_s10", "bdi_s11", "bdi_s12"),
            sg_measure_name = "bdi")
#> First, second, and third sudden gains criteria were applied.
#> The critical value for the third criterion was adjusted for missingness.
#> # A tibble: 24 × 28
#>       id id_sg sg_cr…¹ sg_se…² sg_fr…³ bdi_s1 bdi_s2 bdi_s3 bdi_s4 bdi_s5 bdi_s6
#>    <dbl> <chr>   <int>   <dbl>   <int>  <dbl>  <dbl>  <dbl>  <dbl>  <dbl>  <dbl>
#>  1     1 1_sg…       1       3       2     35     37     34     23     24     21
#>  2     1 1_sg…       1       7       2     35     37     34     23     24     21
#>  3     3 3_sg…       1       8       1     35     38     35     37     36     37
#>  4     4 4_sg…       1       3       1     31     30     32     22     22     20
#>  5     5 5_sg…       1       3       2     39     37     36     26     26     23
#>  6     5 5_sg…       1       8       2     39     37     36     26     26     23
#>  7     9 9_sg…       1       3       1     35     34     32     23     24     22
#>  8    10 10_s…       1       2       2     35     35     25     25     17     17
#>  9    10 10_s…       1       4       2     35     35     25     25     17     17
#> 10    12 12_s…       1       3       1     38     38     31     23     21     22
#> # … with 14 more rows, 17 more variables: bdi_s7 <dbl>, bdi_s8 <dbl>,
#> #   bdi_s9 <dbl>, bdi_s10 <dbl>, bdi_s11 <dbl>, bdi_s12 <dbl>, sg_bdi_2n <dbl>,
#> #   sg_bdi_1n <dbl>, sg_bdi_n <dbl>, sg_bdi_n1 <dbl>, sg_bdi_n2 <dbl>,
#> #   sg_bdi_n3 <dbl>, sg_magnitude <dbl>, sg_bdi_tx_change <dbl>,
#> #   sg_change_proportion <dbl>, sg_reversal_value <dbl>, sg_reversal <dbl>, and
#> #   abbreviated variable names ¹​sg_crit123, ²​sg_session_n, ³​sg_freq_byperson
…
