Identify sudden losses. — identify_sl • suddengains
…
    Examples

# Identify sudden losses
identify_sl(data = sgdata,
            # Negative cut-off value to identify sudden losses
            sg_crit1_cutoff = -7,
            id_var_name = "id",
            sg_var_list = c("bdi_s1", "bdi_s2", "bdi_s3",
                            "bdi_s4", "bdi_s5", "bdi_s6",
                            "bdi_s7", "bdi_s8", "bdi_s9",
                            "bdi_s10", "bdi_s11", "bdi_s12"))
#> First, second, and third sudden gains criteria were applied.
#> The critical value for the third criterion was adjusted for missingness.
#> # A tibble: 43 × 22
#>       id bdi_s1 bdi_s2 bdi_s3 bdi_s4 bdi_s5 bdi_s6 bdi_s7 bdi_s8 bdi_s9 bdi_s10
#>    <dbl>  <dbl>  <dbl>  <dbl>  <dbl>  <dbl>  <dbl>  <dbl>  <dbl>  <dbl>   <dbl>
#>  1     1     35     37     34     23     24     21     29     17     11      11
#>  2     2     26     NA     26     NA     27     17     19     11     10       3
#>  3     3     35     38     35     37     36     37     NA     35     26      24
#>  4     4     31     30     32     22     22     20     21     19     24      33
#>  5     5     39     37     36     26     26     23     21     19      6       7
#>  6     6     37     NA     23     NA     23     21     NA     NA     19      NA
#>  7     7     37     NA     23     21     NA     21     NA     NA     NA      NA
#>  8     8     41     37     NA     NA     NA     NA     NA     NA     NA      NA
#>  9     9     35     34     32     23     24     22     21     17     14      10
#> 10    10     35     35     25     25     17     17     16     16     11       9
#> # … with 33 more rows, and 11 more variables: bdi_s11 <dbl>, bdi_s12 <dbl>,
#> #   sl_2to3 <int>, sl_3to4 <int>, sl_4to5 <int>, sl_5to6 <int>, sl_6to7 <int>,
#> #   sl_7to8 <int>, sl_8to9 <int>, sl_9to10 <int>, sl_10to11 <int>
…
